{
	"info": {
		"_postman_id": "a36093e0-4b49-4fc4-9e0b-779968601ebb",
		"name": "Senuber",
		"schema": "https://schema.getpostman.com/json/collection/v2.1.0/collection.json"
	},
	"item": [
		{
			"name": "Register",
			"request": {
				"method": "POST",
				"header": [],
				"body": {
					"mode": "raw",
					"raw": "{\n    \"firstName\" : \"Sanubar\",\n    \"lastName\" : \"Huseynova\",\n    \"birthday\" : \"03-05-1999\",\n    \"email\" : \"sanubar@ada.edu.az\",\n    \"password\" : \"sanubar99\"\n}",
					"options": {
						"raw": {
							"language": "json"
						}
					}
				},
				"url": {
					"raw": "http://localhost:8080/auth/register",
					"protocol": "http",
					"host": [
						"localhost"
					],
					"port": "8080",
					"path": [
						"auth",
						"register"
					]
				}
			},
			"response": []
		},
		{
			"name": "Login",
			"request": {
				"method": "GET",
				"header": [
					{
						"key": "email",
						"value": "sanubar@ada.edu.az",
						"type": "text"
					},
					{
						"key": "password",
						"value": "sanubar99",
						"type": "text"
					}
				],
				"url": {
					"raw": "http://localhost:8080/auth/login",
					"protocol": "http",
					"host": [
						"localhost"
					],
					"port": "8080",
					"path": [
						"auth",
						"login"
					]
				}
			},
			"response": []
		},
		{
			"name": "Book by id",
			"protocolProfileBehavior": {
				"disableBodyPruning": true
			},
			"request": {
				"method": "GET",
				"header": [],
				"body": {
					"mode": "raw",
					"raw": "",
					"options": {
						"raw": {
							"language": "json"
						}
					}
				},
				"url": {
					"raw": "http://localhost:8080/book/2",
					"protocol": "http",
					"host": [
						"localhost"
					],
					"port": "8080",
					"path": [
						"book",
						"2"
					]
				}
			},
			"response": []
		},
		{
			"name": "Book by Name",
			"protocolProfileBehavior": {
				"disableBodyPruning": true
			},
			"request": {
				"method": "GET",
				"header": [
					{
						"key": "name",
						"value": "BOOK1",
						"type": "text"
					}
				],
				"body": {
					"mode": "raw",
					"raw": "",
					"options": {
						"raw": {
							"language": "json"
						}
					}
				},
				"url": {
					"raw": "http://localhost:8080/book/byName",
					"protocol": "http",
					"host": [
						"localhost"
					],
					"port": "8080",
					"path": [
						"book",
						"byName"
					]
				}
			},
			"response": []
		},
		{
			"name": "Book by Category",
			"protocolProfileBehavior": {
				"disableBodyPruning": true
			},
			"request": {
				"method": "GET",
				"header": [
					{
						"key": "category",
						"value": "Fiction",
						"type": "text"
					}
				],
				"body": {
					"mode": "raw",
					"raw": "",
					"options": {
						"raw": {
							"language": "json"
						}
					}
				},
				"url": {
					"raw": "http://localhost:8080/book/byCategory",
					"protocol": "http",
					"host": [
						"localhost"
					],
					"port": "8080",
					"path": [
						"book",
						"byCategory"
					]
				}
			},
			"response": []
		},
		{
			"name": "Book by Author",
			"protocolProfileBehavior": {
				"disableBodyPruning": true
			},
			"request": {
				"method": "GET",
				"header": [
					{
						"key": "author",
						"value": "AUTHOR3",
						"type": "text"
					}
				],
				"body": {
					"mode": "raw",
					"raw": "",
					"options": {
						"raw": {
							"language": "json"
						}
					}
				},
				"url": {
					"raw": "http://localhost:8080/book/byAuthor",
					"protocol": "http",
					"host": [
						"localhost"
					],
					"port": "8080",
					"path": [
						"book",
						"byAuthor"
					]
				}
			},
			"response": []
		},
		{
			"name": "Book by Name and Category",
			"protocolProfileBehavior": {
				"disableBodyPruning": true
			},
			"request": {
				"method": "GET",
				"header": [
					{
						"key": "name",
						"value": "BOOK1",
						"type": "text"
					},
					{
						"key": "category",
						"value": "Drama",
						"type": "text"
					}
				],
				"body": {
					"mode": "raw",
					"raw": "",
					"options": {
						"raw": {
							"language": "json"
						}
					}
				},
				"url": {
					"raw": "http://localhost:8080/book/byNameAndCategory",
					"protocol": "http",
					"host": [
						"localhost"
					],
					"port": "8080",
					"path": [
						"book",
						"byNameAndCategory"
					]
				}
			},
			"response": []
		},
		{
			"name": "Book by Name and Author",
			"protocolProfileBehavior": {
				"disableBodyPruning": true
			},
			"request": {
				"method": "GET",
				"header": [
					{
						"key": "name",
						"value": "BOOK1",
						"type": "text"
					},
					{
						"key": "author",
						"value": "AUTHOR1",
						"type": "text"
					}
				],
				"body": {
					"mode": "raw",
					"raw": "",
					"options": {
						"raw": {
							"language": "json"
						}
					}
				},
				"url": {
					"raw": "http://localhost:8080/book/byNameAndAuthor",
					"protocol": "http",
					"host": [
						"localhost"
					],
					"port": "8080",
					"path": [
						"book",
						"byNameAndAuthor"
					]
				}
			},
			"response": []
		},
		{
			"name": "Book by Category and Author",
			"protocolProfileBehavior": {
				"disableBodyPruning": true
			},
			"request": {
				"method": "GET",
				"header": [
					{
						"key": "category",
						"value": "Drama",
						"type": "text"
					},
					{
						"key": "author",
						"value": "AUTHOR1",
						"type": "text"
					}
				],
				"body": {
					"mode": "raw",
					"raw": "",
					"options": {
						"raw": {
							"language": "json"
						}
					}
				},
				"url": {
					"raw": "http://localhost:8080/book/byCategoryAndAuthor",
					"protocol": "http",
					"host": [
						"localhost"
					],
					"port": "8080",
					"path": [
						"book",
						"byCategoryAndAuthor"
					]
				}
			},
			"response": []
		},
		{
			"name": "Book by ALL",
			"protocolProfileBehavior": {
				"disableBodyPruning": true
			},
			"request": {
				"method": "GET",
				"header": [
					{
						"key": "category",
						"value": "Drama",
						"type": "text"
					},
					{
						"key": "author",
						"value": "AUTHOR1",
						"type": "text"
					},
					{
						"key": "name",
						"value": "BOOK1",
						"type": "text"
					}
				],
				"body": {
					"mode": "raw",
					"raw": "",
					"options": {
						"raw": {
							"language": "json"
						}
					}
				},
				"url": {
					"raw": "http://localhost:8080/book/byNameAndCategoryAndAuthor",
					"protocol": "http",
					"host": [
						"localhost"
					],
					"port": "8080",
					"path": [
						"book",
						"byNameAndCategoryAndAuthor"
					]
				}
			},
			"response": []
		},
		{
			"name": "All books",
			"protocolProfileBehavior": {
				"disableBodyPruning": true
			},
			"request": {
				"method": "GET",
				"header": [],
				"body": {
					"mode": "raw",
					"raw": "",
					"options": {
						"raw": {
							"language": "json"
						}
					}
				},
				"url": {
					"raw": "http://localhost:8080/book/getAll",
					"protocol": "http",
					"host": [
						"localhost"
					],
					"port": "8080",
					"path": [
						"book",
						"getAll"
					]
				}
			},
			"response": []
		},
		{
			"name": "Take Book",
			"request": {
				"method": "POST",
				"header": [
					{
						"key": "token",
						"value": "XVDYMNIVJQJFYDU",
						"type": "text"
					}
				],
				"url": {
					"raw": "http://localhost:8080/book/take/2",
					"protocol": "http",
					"host": [
						"localhost"
					],
					"port": "8080",
					"path": [
						"book",
						"take",
						"2"
					]
				}
			},
			"response": []
		},
		{
			"name": "Return Book",
			"request": {
				"method": "POST",
				"header": [
					{
						"key": "token",
						"value": "XVDYMNIVJQJFYDU",
						"type": "text"
					}
				],
				"url": {
					"raw": "http://localhost:8080/book/return/3",
					"protocol": "http",
					"host": [
						"localhost"
					],
					"port": "8080",
					"path": [
						"book",
						"return",
						"3"
					]
				}
			},
			"response": []
		},
		{
			"name": "Comment to a book",
			"request": {
				"method": "POST",
				"header": [
					{
						"key": "token",
						"value": "NTZODFNZLCQZIMY",
						"type": "text"
					}
				],
				"url": {
					"raw": "http://localhost:8080/book/comment/2?commentContent=This is so nice",
					"protocol": "http",
					"host": [
						"localhost"
					],
					"port": "8080",
					"path": [
						"book",
						"comment",
						"2"
					],
					"query": [
						{
							"key": "commentContent",
							"value": "This is so nice"
						}
					]
				}
			},
			"response": []
		},
		{
			"name": "Reply to a comment",
			"request": {
				"method": "POST",
				"header": [
					{
						"key": "token",
						"value": "NTZODFNZLCQZIMY",
						"type": "text"
					}
				],
				"url": {
					"raw": "http://localhost:8080/book/reply/60783b05185c1b372d13f13b?commentContent=This is a reply",
					"protocol": "http",
					"host": [
						"localhost"
					],
					"port": "8080",
					"path": [
						"book",
						"reply",
						"60783b05185c1b372d13f13b"
					],
					"query": [
						{
							"key": "commentContent",
							"value": "This is a reply"
						}
					]
				}
			},
			"response": []
		},
		{
			"name": "History",
			"request": {
				"method": "GET",
				"header": [
					{
						"key": "token",
						"value": "XVDYMNIVJQJFYDU",
						"type": "text"
					}
				],
				"url": {
					"raw": "http://localhost:8080/book/history",
					"protocol": "http",
					"host": [
						"localhost"
					],
					"port": "8080",
					"path": [
						"book",
						"history"
					]
				}
			},
			"response": []
		},
		{
			"name": "Current Books",
			"request": {
				"method": "GET",
				"header": [
					{
						"key": "token",
						"value": "XVDYMNIVJQJFYDU",
						"type": "text"
					}
				],
				"url": {
					"raw": "http://localhost:8080/book/bookList",
					"protocol": "http",
					"host": [
						"localhost"
					],
					"port": "8080",
					"path": [
						"book",
						"bookList"
					]
				}
			},
			"response": []
		}
	]
}